%YAML 1.1
%TAG !u! tag:unity3d.com,2011:
--- !u!114 &1202829798
MonoBehaviour:
  m_ObjectHideFlags: 0
  m_CorrespondingSourceObject: {fileID: 0}
  m_PrefabInstance: {fileID: 0}
  m_PrefabAsset: {fileID: 0}
  m_GameObject: {fileID: 6249990309180928430}
  m_Enabled: 1
  m_EditorHideFlags: 0
  m_Script: {fileID: 11500000, guid: 80a0487ec73652b429ea07b915d61aae, type: 3}
  m_Name: 
  m_EditorClassIdentifier: 
  speed: 10
  rotationSpeed: 200
  currentSpeed: 0
--- !u!136 &7561742563263557372
CapsuleCollider:
  m_ObjectHideFlags: 0
  m_CorrespondingSourceObject: {fileID: 0}
  m_PrefabInstance: {fileID: 0}
  m_PrefabAsset: {fileID: 0}
  m_GameObject: {fileID: 6249990309180928430}
  m_Material: {fileID: 0}
  m_IsTrigger: 0
  m_Enabled: 1
  m_Radius: 0.5
  m_Height: 1.9784231
  m_Direction: 1
  m_Center: {x: 0, y: 0.85446787, z: -0}
--- !u!1001 &2387584968687083909
PrefabInstance:
  m_ObjectHideFlags: 0
  serializedVersion: 2
  m_Modification:
    m_TransformParent: {fileID: 0}
    m_Modifications:
    - target: {fileID: 8619338778009079851, guid: 47a3741b253f088469eedd6d403dd89a, type: 3}
      propertyPath: m_Name
      value: Police Variant
      objectReference: {fileID: 0}
    - target: {fileID: 8619338778009079851, guid: 47a3741b253f088469eedd6d403dd89a, type: 3}
      propertyPath: m_TagString
      value: Player
      objectReference: {fileID: 0}
    - target: {fileID: 8619338778009177163, guid: 47a3741b253f088469eedd6d403dd89a, type: 3}
      propertyPath: m_LocalPosition.x
      value: -1.6223863
      objectReference: {fileID: 0}
    - target: {fileID: 8619338778009177163, guid: 47a3741b253f088469eedd6d403dd89a, type: 3}
      propertyPath: m_LocalPosition.y
      value: -3.35
      objectReference: {fileID: 0}
    - target: {fileID: 8619338778009177163, guid: 47a3741b253f088469eedd6d403dd89a, type: 3}
      propertyPath: m_LocalPosition.z
      value: -5.4536514
      objectReference: {fileID: 0}
    - target: {fileID: 8619338778009177163, guid: 47a3741b253f088469eedd6d403dd89a, type: 3}
      propertyPath: m_LocalRotation.x
      value: 0
      objectReference: {fileID: 0}
    - target: {fileID: 8619338778009177163, guid: 47a3741b253f088469eedd6d403dd89a, type: 3}
      propertyPath: m_LocalRotation.y
      value: 1
      objectReference: {fileID: 0}
    - target: {fileID: 8619338778009177163, guid: 47a3741b253f088469eedd6d403dd89a, type: 3}
      propertyPath: m_LocalRotation.z
      value: 0
      objectReference: {fileID: 0}
    - target: {fileID: 8619338778009177163, guid: 47a3741b253f088469eedd6d403dd89a, type: 3}
      propertyPath: m_LocalRotation.w
      value: -0.00000016292068
      objectReference: {fileID: 0}
    - target: {fileID: 8619338778009177163, guid: 47a3741b253f088469eedd6d403dd89a, type: 3}
      propertyPath: m_RootOrder
      value: 0
      objectReference: {fileID: 0}
    - target: {fileID: 8619338778009177163, guid: 47a3741b253f088469eedd6d403dd89a, type: 3}
      propertyPath: m_LocalEulerAnglesHint.x
      value: 0
      objectReference: {fileID: 0}
    - target: {fileID: 8619338778009177163, guid: 47a3741b253f088469eedd6d403dd89a, type: 3}
      propertyPath: m_LocalEulerAnglesHint.y
      value: 0
      objectReference: {fileID: 0}
    - target: {fileID: 8619338778009177163, guid: 47a3741b253f088469eedd6d403dd89a, type: 3}
      propertyPath: m_LocalEulerAnglesHint.z
      value: 0
      objectReference: {fileID: 0}
    m_RemovedComponents: []
  m_SourcePrefab: {fileID: 100100000, guid: 47a3741b253f088469eedd6d403dd89a, type: 3}
--- !u!1 &6249990309180928430 stripped
GameObject:
  m_CorrespondingSourceObject: {fileID: 8619338778009079851, guid: 47a3741b253f088469eedd6d403dd89a, type: 3}
  m_PrefabInstance: {fileID: 2387584968687083909}
  m_PrefabAsset: {fileID: 0}
